Lab11/pm.vcd
$date
	Sun Nov 12 19:59:18 2017
$end
$version
	Icarus Verilog
$end
$timescale
	1s
$end
$scope module test $end
$var wire 32 ! PC [31:0] $end
$var reg 1 " clk $end
$var reg 1 # done $end
$var integer 32 $ i [31:0] $end
$var reg 1 % reset $end
$scope module pm $end
$var wire 3 & ALUOp [2:0] $end
$var wire 1 ' ALUSrc $end
$var wire 1 ( BEQ $end
$var wire 32 ) B_data [31:0] $end
$var wire 1 * ForwardA $end
$var wire 1 + ForwardB $end
$var wire 1 , MemRead $end
$var wire 1 - MemRead_MW $end
$var wire 1 . MemToReg $end
$var wire 1 / MemToReg_MW $end
$var wire 1 0 MemWrite $end
$var wire 1 1 MemWrite_MW $end
$var wire 32 2 PC [31:0] $end
$var wire 1 3 PCSrc $end
$var wire 30 4 PC_plus4 [31:2] $end
$var wire 30 5 PC_plus4_MW [29:0] $end
$var wire 30 6 PC_target [31:2] $end
$var wire 1 7 RegDst $end
$var wire 1 8 RegWrite $end
$var wire 1 9 RegWrite_MW $end
$var wire 32 : alu_out_data [31:0] $end
$var wire 32 ; alu_out_data_MW [31:0] $end
$var wire 1 < clk $end
$var wire 1 = flush $end
$var wire 6 > funct [5:0] $end
$var wire 32 ? imm [31:0] $end
$var wire 32 @ inst [31:0] $end
$var wire 32 A inst_MW [31:0] $end
$var wire 32 B load_data [31:0] $end
$var wire 30 C next_PC [31:2] $end
$var wire 32 D oldrd1_data [31:0] $end
$var wire 32 E oldrd2_data [31:0] $end
$var wire 6 F opcode [5:0] $end
$var wire 5 G rd [4:0] $end
$var wire 32 H rd1_data [31:0] $end
$var wire 32 I rd2_data [31:0] $end
$var wire 32 J rd2_data_MW [31:0] $end
$var wire 1 K reset $end
$var wire 5 L rs [4:0] $end
$var wire 5 M rt [4:0] $end
$var wire 1 N stall $end
$var wire 32 O wr_data [31:0] $end
$var wire 5 P wr_regnum [4:0] $end
$var wire 5 Q wr_regnum_MW [4:0] $end
$var wire 1 R zero $end
$scope module PC_reg $end
$var wire 1 < clk $end
$var wire 30 S d [29:0] $end
$var wire 1 T enable $end
$var wire 1 K reset $end
$var reg 30 U q [29:0] $end
$upscope $end
$scope module next_PC_adder $end
$var wire 30 V in1 [29:0] $end
$var wire 30 W in2 [29:0] $end
$var wire 30 X out [29:0] $end
$upscope $end
$scope module target_PC_adder $end
$var wire 30 Y in1 [29:0] $end
$var wire 30 Z in2 [29:0] $end
$var wire 30 [ out [29:0] $end
$upscope $end
$scope module branch_mux $end
$var wire 30 \ A [29:0] $end
$var wire 30 ] B [29:0] $end
$var wire 30 ^ out [29:0] $end
$var wire 1 3 sel $end
$var wire 30 _ temp1 [29:0] $end
$var wire 30 ` temp2 [29:0] $end
$upscope $end
$scope module imem $end
$var wire 30 a addr [29:0] $end
$var wire 32 b data [31:0] $end
$var reg 32 c i [31:0] $end
$upscope $end
$scope module decode $end
$var wire 3 d ALUOp [2:0] $end
$var wire 1 ' ALUSrc $end
$var wire 1 ( BEQ $end
$var wire 1 , MemRead $end
$var wire 1 . MemToReg $end
$var wire 1 0 MemWrite $end
$var wire 1 7 RegDst $end
$var wire 1 8 RegWrite $end
$var wire 6 e funct [5:0] $end
$var wire 1 f nop $end
$var wire 1 g op0 $end
$var wire 6 h opcode [5:0] $end
$upscope $end
$scope module rf $end
$var wire 1 < clock $end
$var wire 32 i internal_rdData [31:0] $end
$var wire 32 j rdData [31:0] $end
$var wire 5 k rdNum [4:0] $end
$var wire 1 9 rdWriteEnable $end
$var wire 1 K reset $end
$var wire 32 l rsData [31:0] $end
$var wire 5 m rsNum [4:0] $end
$var wire 32 n rtData [31:0] $end
$var wire 5 o rtNum [4:0] $end
$var integer 32 p i [31:0] $end
$upscope $end
$scope module imm_mux $end
$var wire 32 q A [31:0] $end
$var wire 32 r B [31:0] $end
$var wire 32 s out [31:0] $end
$var wire 1 ' sel $end
$var wire 32 t temp1 [31:0] $end
$var wire 32 u temp2 [31:0] $end
$upscope $end
$scope module alu $end
$var wire 3 v control [2:0] $end
$var wire 32 w inA [31:0] $end
$var wire 32 x inB [31:0] $end
$var wire 32 y out [31:0] $end
$var wire 1 R zero $end
$upscope $end
$scope module data_memory $end
$var wire 32 z addr [31:0] $end
$var wire 1 < clk $end
$var wire 32 { d_out [31:0] $end
$var wire 32 | data_in [31:0] $end
$var wire 32 } data_out [31:0] $end
$var wire 19 ~ index [18:0] $end
$var wire 32 !" internal_data_in [31:0] $end
$var wire 1 - mem_read $end
$var wire 1 1 mem_write $end
$var wire 1 K reset $end
$var wire 1 "" valid_address $end
$var integer 32 #" i [31:0] $end
$upscope $end
$scope module wb_mux $end
$var wire 32 $" A [31:0] $end
$var wire 32 %" B [31:0] $end
$var wire 32 &" out [31:0] $end
$var wire 1 / sel $end
$var wire 32 '" temp1 [31:0] $end
$var wire 32 (" temp2 [31:0] $end
$upscope $end
$scope module rd_mux $end
$var wire 5 )" A [4:0] $end
$var wire 5 *" B [4:0] $end
$var wire 5 +" out [4:0] $end
$var wire 1 7 sel $end
$var wire 5 ," temp1 [4:0] $end
$var wire 5 -" temp2 [4:0] $end
$upscope $end
$scope module Piplinepc $end
$var wire 1 < clk $end
$var wire 30 ." d [29:0] $end
$var wire 1 /" enable $end
$var wire 1 = reset $end
$var reg 30 0" q [29:0] $end
$upscope $end
$scope module PiplineInstr $end
$var wire 1 < clk $end
$var wire 32 1" d [31:0] $end
$var wire 1 2" enable $end
$var wire 1 = reset $end
$var reg 32 3" q [31:0] $end
$upscope $end
$scope module PipALUout $end
$var wire 1 < clk $end
$var wire 32 4" d [31:0] $end
$var wire 1 5" enable $end
$var wire 1 N reset $end
$var reg 32 6" q [31:0] $end
$upscope $end
$scope module PiplineW_D $end
$var wire 1 < clk $end
$var wire 32 7" d [31:0] $end
$var wire 1 8" enable $end
$var wire 1 N reset $end
$var reg 32 9" q [31:0] $end
$upscope $end
$scope module Piplinecontrol $end
$var wire 1 < clk $end
$var wire 1 , d $end
$var wire 1 :" enable $end
$var wire 1 N reset $end
$var reg 1 ;" q $end
$upscope $end
$scope module Piplinecontro $end
$var wire 1 < clk $end
$var wire 1 0 d $end
$var wire 1 <" enable $end
$var wire 1 N reset $end
$var reg 1 =" q $end
$upscope $end
$scope module Piplinecontr $end
$var wire 1 < clk $end
$var wire 1 . d $end
$var wire 1 >" enable $end
$var wire 1 N reset $end
$var reg 1 ?" q $end
$upscope $end
$scope module Piplcontr $end
$var wire 1 < clk $end
$var wire 1 8 d $end
$var wire 1 @" enable $end
$var wire 1 N reset $end
$var reg 1 A" q $end
$upscope $end
$scope module Piplineconl $end
$var wire 1 < clk $end
$var wire 5 B" d [4:0] $end
$var wire 1 C" enable $end
$var wire 1 N reset $end
$var reg 5 D" q [4:0] $end
$upscope $end
$scope module FA $end
$var wire 32 E" A [31:0] $end
$var wire 32 F" B [31:0] $end
$var wire 32 G" out [31:0] $end
$var wire 1 * sel $end
$var wire 32 H" temp1 [31:0] $end
$var wire 32 I" temp2 [31:0] $end
$upscope $end
$scope module Fb $end
$var wire 32 J" A [31:0] $end
$var wire 32 K" B [31:0] $end
$var wire 32 L" out [31:0] $end
$var wire 1 + sel $end
$var wire 32 M" temp1 [31:0] $end
$var wire 32 N" temp2 [31:0] $end
$upscope $end
$upscope $end
$upscope $end
$scope module test $end
$scope module pm $end
$scope module rf $end
$var reg 32 O" \r[0] [31:0] $end
$upscope $end
$upscope $end
$upscope $end
$scope module test $end
$scope module pm $end
$scope module rf $end
$var reg 32 P" \r[1] [31:0] $end
$upscope $end
$upscope $end
$upscope $end
$scope module test $end
$scope module pm $end
$scope module rf $end
$var reg 32 Q" \r[2] [31:0] $end
$upscope $end
$upscope $end
$upscope $end
$scope module test $end
$scope module pm $end
$scope module rf $end
$var reg 32 R" \r[3] [31:0] $end
$upscope $end
$upscope $end
$upscope $end
$scope module test $end
$scope module pm $end
$scope module rf $end
$var reg 32 S" \r[4] [31:0] $end
$upscope $end
$upscope $end
$upscope $end
$scope module test $end
$scope module pm $end
$scope module rf $end
$var reg 32 T" \r[5] [31:0] $end
$upscope $end
$upscope $end
$upscope $end
$scope module test $end
$scope module pm $end
$scope module rf $end
$var reg 32 U" \r[6] [31:0] $end
$upscope $end
$upscope $end
$upscope $end
$scope module test $end
$scope module pm $end
$scope module rf $end
$var reg 32 V" \r[7] [31:0] $end
$upscope $end
$upscope $end
$upscope $end
$scope module test $end
$scope module pm $end
$scope module rf $end
$var reg 32 W" \r[8] [31:0] $end
$upscope $end
$upscope $end
$upscope $end
$scope module test $end
$scope module pm $end
$scope module rf $end
$var reg 32 X" \r[9] [31:0] $end
$upscope $end
$upscope $end
$upscope $end
$scope module test $end
$scope module pm $end
$scope module rf $end
$var reg 32 Y" \r[10] [31:0] $end
$upscope $end
$upscope $end
$upscope $end
$scope module test $end
$scope module pm $end
$scope module rf $end
$var reg 32 Z" \r[11] [31:0] $end
$upscope $end
$upscope $end
$upscope $end
$scope module test $end
$scope module pm $end
$scope module rf $end
$var reg 32 [" \r[12] [31:0] $end
$upscope $end
$upscope $end
$upscope $end
$scope module test $end
$scope module pm $end
$scope module rf $end
$var reg 32 \" \r[13] [31:0] $end
$upscope $end
$upscope $end
$upscope $end
$scope module test $end
$scope module pm $end
$scope module rf $end
$var reg 32 ]" \r[14] [31:0] $end
$upscope $end
$upscope $end
$upscope $end
$scope module test $end
$scope module pm $end
$scope module rf $end
$var reg 32 ^" \r[15] [31:0] $end
$upscope $end
$upscope $end
$upscope $end
$scope module test $end
$scope module pm $end
$scope module rf $end
$var reg 32 _" \r[16] [31:0] $end
$upscope $end
$upscope $end
$upscope $end
$scope module test $end
$scope module pm $end
$scope module rf $end
$var reg 32 `" \r[17] [31:0] $end
$upscope $end
$upscope $end
$upscope $end
$scope module test $end
$scope module pm $end
$scope module rf $end
$var reg 32 a" \r[18] [31:0] $end
$upscope $end
$upscope $end
$upscope $end
$scope module test $end
$scope module pm $end
$scope module rf $end
$var reg 32 b" \r[19] [31:0] $end
$upscope $end
$upscope $end
$upscope $end
$scope module test $end
$scope module pm $end
$scope module rf $end
$var reg 32 c" \r[20] [31:0] $end
$upscope $end
$upscope $end
$upscope $end
$scope module test $end
$scope module pm $end
$scope module rf $end
$var reg 32 d" \r[21] [31:0] $end
$upscope $end
$upscope $end
$upscope $end
$scope module test $end
$scope module pm $end
$scope module rf $end
$var reg 32 e" \r[22] [31:0] $end
$upscope $end
$upscope $end
$upscope $end
$scope module test $end
$scope module pm $end
$scope module rf $end
$var reg 32 f" \r[23] [31:0] $end
$upscope $end
$upscope $end
$upscope $end
$scope module test $end
$scope module pm $end
$scope module rf $end
$var reg 32 g" \r[24] [31:0] $end
$upscope $end
$upscope $end
$upscope $end
$scope module test $end
$scope module pm $end
$scope module rf $end
$var reg 32 h" \r[25] [31:0] $end
$upscope $end
$upscope $end
$upscope $end
$scope module test $end
$scope module pm $end
$scope module rf $end
$var reg 32 i" \r[26] [31:0] $end
$upscope $end
$upscope $end
$upscope $end
$scope module test $end
$scope module pm $end
$scope module rf $end
$var reg 32 j" \r[27] [31:0] $end
$upscope $end
$upscope $end
$upscope $end
$scope module test $end
$scope module pm $end
$scope module rf $end
$var reg 32 k" \r[28] [31:0] $end
$upscope $end
$upscope $end
$upscope $end
$scope module test $end
$scope module pm $end
$scope module rf $end
$var reg 32 l" \r[29] [31:0] $end
$upscope $end
$upscope $end
$upscope $end
$scope module test $end
$scope module pm $end
$scope module rf $end
$var reg 32 m" \r[30] [31:0] $end
$upscope $end
$upscope $end
$upscope $end
$scope module test $end
$scope module pm $end
$scope module rf $end
$var reg 32 n" \r[31] [31:0] $end
$upscope $end
$upscope $end
$upscope $end
$enddefinitions $end
#0
$dumpvars
b10000000000010000000000000000 n"
b10000000000010000000000000000 m"
b10000000000010000000000000000 l"
b10000000000010000000000000000 k"
b10000000000010000000000000000 j"
b10000000000010000000000000000 i"
b10000000000010000000000000000 h"
b10000000000010000000000000000 g"
b10000000000010000000000000000 f"
b10000000000010000000000000000 e"
b10000000000010000000000000000 d"
b10000000000010000000000000000 c"
b10000000000010000000000000000 b"
b10000000000010000000000000000 a"
b10000000000010000000000000000 `"
b10000000000010000000000000000 _"
b10000000000010000000000000000 ^"
b10000000000010000000000000000 ]"
b10000000000010000000000000000 \"
b10000000000010000000000000000 ["
b10000000000010000000000000000 Z"
b10000000000010000000000000000 Y"
b10000000000010000000000000000 X"
b10000000000010000000000000000 W"
b10000000000010000000000000000 V"
b10000000000010000000000000000 U"
b10000000000010000000000000000 T"
b10000000000010000000000000000 S"
b10000000000010000000000000000 R"
b10000000000010000000000000000 Q"
b10000000000010000000000000000 P"
b0 O"
bx N"
bx M"
bx L"
bx K"
bx J"
bx I"
bx H"
bx G"
bx F"
bx E"
bx D"
xC"
bx B"
xA"
x@"
x?"
x>"
x="
x<"
x;"
x:"
bx 9"
x8"
bx 7"
bx 6"
x5"
bx 4"
bx 3"
x2"
bx 1"
bx 0"
x/"
bx ."
bx -"
bx ,"
bx +"
bx *"
bx )"
bx ("
bx '"
bx &"
bx %"
bx $"
b1000000000000000000 #"
x""
bx !"
bx ~
bx }
bx |
bx {
bx z
bx y
bx x
bx w
bx v
bx u
bx t
bx s
bx r
bx q
b100000 p
bx o
bx n
bx m
bx l
bx k
bx j
bx i
bx h
xg
xf
bx e
bx d
b100000000 c
bx b
bx a
bx `
bx _
bx ^
bx ]
bx \
bx [
bx Z
bx Y
bx X
b1 W
bx V
bx U
xT
bx S
xR
bx Q
bx P
bx O
xN
bx M
bx L
1K
bx J
bx I
bx H
bx G
bx F
bx E
bx D
bx C
bx B
bx A
bx @
bx ?
bx >
1=
0<
bx ;
bx :
x9
x8
x7
bx 6
bx 5
bx 4
x3
bx00 2
x1
x0
x/
x.
x-
x,
x+
x*
bx )
x(
x'
bx &
1%
b100000 $
0#
0"
bx00 !
$end
#2
b0 P
b0 +"
b0 B"
1C"
1@"
1>"
1<"
1:"
18"
15"
12"
1/"
1T
b0 -"
b0 ,"
0N
b0 Z
b0 u
b100000000000000000000 V
b100000000000000000000 a
b0 >
b0 e
1g
b0 F
b0 h
b0 G
b0 *"
b0 M
b0 o
b0 )"
b0 L
b0 m
b0 ?
b0 r
b100000000000000000000 U
b10000000000000000000000 2
b10000000000000000000000 !
b100000000000000000000 0"
b100000000000000000000 5
b100000000000000000000 Y
b0 3"
b0 A
1"
1<
#3
b0 M"
b0 H"
b0 E
b0 n
b0 J"
b0 D
b0 l
b0 E"
#4
08
b100000000000000000001 C
b100000000000000000001 S
b100000000000000000001 ^
b0 `
b100000000000000000001 _
03
17
0'
b0 &
b0 d
b0 v
1f
b100000000000000000000 6
b100000000000000000000 [
b100000000000000000000 ]
b100000000000000000001 4
b100000000000000000001 X
b100000000000000000001 \
b100000000000000000001 ."
0(
0.
0,
00
0"
0<
#5
b10001110100000100000000000000000 @
b10001110100000100000000000000000 b
b10001110100000100000000000000000 1"
#6
b0 )
b0 s
b0 x
b0 t
b0 I
b0 q
b0 7"
b0 L"
b0 H
b0 w
b0 G"
b0 N"
b0 I"
0+
0*
b0 ("
b0 D"
b0 Q
b0 k
0A"
09
0?"
0/
0="
01
0;"
0-
1"
1<
#7
0=
1R
0%
0K
#8
b0 :
b0 y
b0 4"
0"
0<
#9
b0 B
b0 }
b0 %"
#10
b0 O
b0 j
b0 &"
b11011110101011011011111011101111 {
b0 ~
b100000000000000000001 V
b100000000000000000001 a
0g
b100011 F
b100011 h
b10 M
b10 o
b10 )"
b10100 L
b10100 m
b0 '"
0""
b100000000000000000001 U
b10000000000000000000100 2
b10000000000000000000100 !
b100000000000000000001 0"
b100000000000000000001 5
b100000000000000000001 Y
b10001110100000100000000000000000 3"
b10001110100000100000000000000000 A
b0 6"
b0 ;
b0 z
b0 $"
b0 F"
b0 K"
b0 9"
b0 J
b0 |
1"
1<
#11
b10000000000010000000000000000 )
b10000000000010000000000000000 s
b10000000000010000000000000000 x
b10000000000010000000000000000 t
b10000000000010000000000000000 I
b10000000000010000000000000000 q
b10000000000010000000000000000 7"
b10000000000010000000000000000 L"
b10000000000010000000000000000 H
b10000000000010000000000000000 w
b10000000000010000000000000000 G"
b10000000000010000000000000000 M"
b10000000000010000000000000000 H"
b0 i
b10000000000010000000000000000 E
b10000000000010000000000000000 n
b10000000000010000000000000000 J"
b10000000000010000000000000000 D
b10000000000010000000000000000 l
b10000000000010000000000000000 E"
#12
b10 P
b10 +"
b10 B"
b0 )
b0 s
b0 x
18
b100000000000000000010 C
b100000000000000000010 S
b100000000000000000010 ^
b10 ,"
b0 t
b100000000000000000010 _
07
1'
0f
b100000000000000000010 4
b100000000000000000010 X
b100000000000000000010 \
b100000000000000000010 ."
1.
1,
b100000000000000000001 6
b100000000000000000001 [
b100000000000000000001 ]
0"
0<
#13
0R
b10001110100000110000000000000100 @
b10001110100000110000000000000100 b
b10001110100000110000000000000100 1"
b0 !"
#14
b11 P
b11 +"
b11 B"
b100 )
b100 s
b100 x
b1 {
b100000000000000 ~
b11 ,"
b100 Z
b100 u
1""
b100 >
b100 e
b11 M
b11 o
b11 )"
b100 ?
b100 r
b100000000000000000010 V
b100000000000000000010 a
b10 D"
b10 Q
b10 k
1A"
19
1?"
1/
1;"
1-
b10000000000010000000000000000 9"
b10000000000010000000000000000 J
b10000000000010000000000000000 |
b10000000000010000000000000000 6"
b10000000000010000000000000000 ;
b10000000000010000000000000000 z
b10000000000010000000000000000 $"
b10000000000010000000000000000 F"
b10000000000010000000000000000 K"
b10001110100000110000000000000100 3"
b10001110100000110000000000000100 A
b100000000000000000010 0"
b100000000000000000010 5
b100000000000000000010 Y
b100000000000000000010 U
b10000000000000000001000 2
b10000000000000000001000 !
b10000000000010000000000000000 :
b10000000000010000000000000000 y
b10000000000010000000000000000 4"
1"
1<
#16
b100000000000000000011 C
b100000000000000000011 S
b100000000000000000011 ^
b100000000000000000011 _
b10000000000010000000000000100 :
b10000000000010000000000000100 y
b10000000000010000000000000100 4"
b100000000000000000011 4
b100000000000000000011 X
b100000000000000000011 \
b100000000000000000011 ."
b100000000000000000110 6
b100000000000000000110 [
b100000000000000000110 ]
0"
0<
#17
b1 O
b1 j
b1 &"
b1 ("
b10001110100001000000000000001000 @
b10001110100001000000000000001000 b
b10001110100001000000000000001000 1"
b1 B
b1 }
b1 %"
b10000000000010000000000000000 !"
#18
b10000000000010000000000000000 I
b10000000000010000000000000000 q
b10000000000010000000000000000 7"
b10000000000010000000000000000 L"
b100 P
b100 +"
b100 B"
b1000 )
b1000 s
b1000 x
b10000000000010000000000000000 M"
b0 N"
b100 ,"
b1000 Z
b1000 u
b11111111 {
b100000000000001 ~
0+
b100000000000000000011 V
b100000000000000000011 a
b1000 >
b1000 e
b100 M
b100 o
b100 )"
b1000 ?
b1000 r
b100000000000000000011 U
b10000000000000000001100 2
b10000000000000000001100 !
b1 Q"
b100000000000000000011 0"
b100000000000000000011 5
b100000000000000000011 Y
b10001110100001000000000000001000 3"
b10001110100001000000000000001000 A
b10000000000010000000000000100 6"
b10000000000010000000000000100 ;
b10000000000010000000000000100 z
b10000000000010000000000000100 $"
b10000000000010000000000000100 F"
b10000000000010000000000000100 K"
b11 D"
b11 Q
b11 k
b1 i
1"
1<
#20
b100000000000000000100 C
b100000000000000000100 S
b100000000000000000100 ^
b100000000000000000100 _
b10000000000010000000000001000 :
b10000000000010000000000001000 y
b10000000000010000000000001000 4"
b100000000000000000100 4
b100000000000000000100 X
b100000000000000000100 \
b100000000000000000100 ."
b100000000000000001011 6
b100000000000000001011 [
b100000000000000001011 ]
0"
0<
#21
b11111111 O
b11111111 j
b11111111 &"
b11111111 ("
b11111111 B
b11111111 }
b11111111 %"
b10001110100001010000000000001100 @
b10001110100001010000000000001100 b
b10001110100001010000000000001100 1"
#22
b101 P
b101 +"
b101 B"
b1100 )
b1100 s
b1100 x
b10000000000 {
b100000000000010 ~
b101 ,"
b1100 Z
b1100 u
b1100 >
b1100 e
b101 M
b101 o
b101 )"
b1100 ?
b1100 r
b100000000000000000100 V
b100000000000000000100 a
b100 D"
b100 Q
b100 k
b10000000000010000000000001000 6"
b10000000000010000000000001000 ;
b10000000000010000000000001000 z
b10000000000010000000000001000 $"
b10000000000010000000000001000 F"
b10000000000010000000000001000 K"
b10001110100001010000000000001100 3"
b10001110100001010000000000001100 A
b100000000000000000100 0"
b100000000000000000100 5
b100000000000000000100 Y
b11111111 R"
b100000000000000000100 U
b10000000000000000010000 2
b10000000000000000010000 !
b11111111 i
1"
1<
#24
b100000000000000000101 C
b100000000000000000101 S
b100000000000000000101 ^
b100000000000000000101 _
b10000000000010000000000001100 :
b10000000000010000000000001100 y
b10000000000010000000000001100 4"
b100000000000000000101 4
b100000000000000000101 X
b100000000000000000101 \
b100000000000000000101 ."
b100000000000000010000 6
b100000000000000010000 [
b100000000000000010000 ]
0"
0<
#25
b10000000000 O
b10000000000 j
b10000000000 &"
b10000000000 ("
b10000000000 B
b10000000000 }
b10000000000 %"
b10001110100001100000000000010000 @
b10001110100001100000000000010000 b
b10001110100001100000000000010000 1"
#26
b10000000000010000000000000000 I
b10000000000010000000000000000 q
b10000000000010000000000000000 7"
b10000000000010000000000000000 L"
b110 P
b110 +"
b110 B"
b10000 )
b10000 s
b10000 x
b10000000000010000000000000000 M"
b0 N"
b110 ,"
b10000 Z
b10000 u
b1100100 {
b100000000000011 ~
0+
b100000000000000000101 V
b100000000000000000101 a
b10000 >
b10000 e
b110 M
b110 o
b110 )"
b10000 ?
b10000 r
b100000000000000000101 U
b10000000000000000010100 2
b10000000000000000010100 !
b10000000000 S"
b100000000000000000101 0"
b100000000000000000101 5
b100000000000000000101 Y
b10001110100001100000000000010000 3"
b10001110100001100000000000010000 A
b10000000000010000000000001100 6"
b10000000000010000000000001100 ;
b10000000000010000000000001100 z
b10000000000010000000000001100 $"
b10000000000010000000000001100 F"
b10000000000010000000000001100 K"
b101 D"
b101 Q
b101 k
b10000000000 i
1"
1<
#28
b100000000000000000110 C
b100000000000000000110 S
b100000000000000000110 ^
b100000000000000000110 _
b10000000000010000000000010000 :
b10000000000010000000000010000 y
b10000000000010000000000010000 4"
b100000000000000000110 4
b100000000000000000110 X
b100000000000000000110 \
b100000000000000000110 ."
b100000000000000010101 6
b100000000000000010101 [
b100000000000000010101 ]
0"
0<
#29
b1100100 O
b1100100 j
b1100100 &"
b1100100 ("
b1100100 B
b1100100 }
b1100100 %"
b10101110100001100000000000000100 @
b10101110100001100000000000000100 b
b10101110100001100000000000000100 1"
#30
b10000000000010000000000010000 I
b10000000000010000000000010000 q
b10000000000010000000000010000 7"
b10000000000010000000000010000 L"
b0 M"
b10000000000010000000000010000 N"
b100 )
b100 s
b100 x
1+
b11001000 {
b100000000000100 ~
b100 Z
b100 u
b100 >
b100 e
b101011 F
b101011 h
b100 ?
b100 r
b100000000000000000110 V
b100000000000000000110 a
b110 D"
b110 Q
b110 k
b10000000000010000000000010000 6"
b10000000000010000000000010000 ;
b10000000000010000000000010000 z
b10000000000010000000000010000 $"
b10000000000010000000000010000 F"
b10000000000010000000000010000 K"
b10101110100001100000000000000100 3"
b10101110100001100000000000000100 A
b100000000000000000110 0"
b100000000000000000110 5
b100000000000000000110 Y
b1100100 T"
b100000000000000000110 U
b10000000000000000011000 2
b10000000000000000011000 !
b1100100 i
1"
1<
#32
0C"
0@"
0>"
0<"
0:"
08"
05"
02"
0/"
0T
1N
b0 P
b0 +"
b0 B"
08
b0 ,"
b100000000000000000111 C
b100000000000000000111 S
b100000000000000000111 ^
17
b100000000000000000111 _
b10000000000010000000000000100 :
b10000000000010000000000000100 y
b10000000000010000000000000100 4"
0.
0,
10
b100000000000000000111 4
b100000000000000000111 X
b100000000000000000111 \
b100000000000000000111 ."
b100000000000000001010 6
b100000000000000001010 [
b100000000000000001010 ]
0"
0<
#33
b11001000 O
b11001000 j
b11001000 &"
b11001000 ("
b11001000 B
b11001000 }
b11001000 %"
b10001110100001110000000000000100 @
b10001110100001110000000000000100 b
b10001110100001110000000000000100 1"
#34
1C"
1@"
1>"
1<"
1:"
18"
15"
12"
1/"
1T
b10000000000010000000000000000 I
b10000000000010000000000000000 q
b10000000000010000000000000000 7"
b10000000000010000000000000000 L"
b11011110101011011011111011101111 {
b0 ~
0N
b0 O
b0 j
b0 &"
b10000000000010000000000000000 M"
b0 N"
0""
b0 ("
0+
b11001000 U"
b0 6"
b0 ;
b0 z
b0 $"
b0 F"
b0 K"
b0 9"
b0 J
b0 |
0;"
0-
0?"
0/
0A"
09
b0 D"
b0 Q
b0 k
b11001000 i
1"
1<
#35
b11001000 I
b11001000 q
b11001000 7"
b11001000 L"
b11001000 M"
b0 i
b11001000 E
b11001000 n
b11001000 J"
#36
0"
0<
#37
b0 B
b0 }
b0 %"
b0 !"
#38
b10000000000010000000000000100 O
b10000000000010000000000000100 j
b10000000000010000000000000100 &"
b11111111 {
b100000000000001 ~
b10000000000010000000000000100 '"
1""
b100011 F
b100011 h
b111 M
b111 o
b111 )"
b100000000000000000111 V
b100000000000000000111 a
1="
11
b11001000 9"
b11001000 J
b11001000 |
b10000000000010000000000000100 6"
b10000000000010000000000000100 ;
b10000000000010000000000000100 z
b10000000000010000000000000100 $"
b10000000000010000000000000100 F"
b10000000000010000000000000100 K"
b10001110100001110000000000000100 3"
b10001110100001110000000000000100 A
b100000000000000000111 0"
b100000000000000000111 5
b100000000000000000111 Y
b100000000000000000111 U
b10000000000000000011100 2
b10000000000000000011100 !
1"
1<
#39
b10000000000010000000000000000 I
b10000000000010000000000000000 q
b10000000000010000000000000000 7"
b10000000000010000000000000000 L"
b10000000000010000000000000000 M"
b10000000000010000000000000100 i
b10000000000010000000000000000 E
b10000000000010000000000000000 n
b10000000000010000000000000000 J"
#40
b111 P
b111 +"
b111 B"
18
b111 ,"
b100000000000000001000 C
b100000000000000001000 S
b100000000000000001000 ^
07
b100000000000000001000 _
1.
1,
00
b100000000000000001000 4
b100000000000000001000 X
b100000000000000001000 \
b100000000000000001000 ."
b100000000000000001011 6
b100000000000000001011 [
b100000000000000001011 ]
0"
0<
#41
b101001010100000000100000 @
b101001010100000000100000 b
b101001010100000000100000 1"
b11001000 !"
#42
b101 P
b101 +"
b101 B"
b100000000100000 )
b100000000100000 s
b100000000100000 x
b10000000000010000000000000000 I
b10000000000010000000000000000 q
b10000000000010000000000000000 7"
b10000000000010000000000000000 L"
b101 ,"
b100000000100000 Z
b100000000100000 u
b0 O
b0 j
b0 &"
b10000000000010000000000000000 M"
b0 N"
b100000000000000001000 V
b100000000000000001000 a
b100000 >
b100000 e
1g
b0 F
b0 h
b1000 G
b1000 *"
b101 M
b101 o
b101 )"
b101 L
b101 m
b100000000100000 ?
b100000000100000 r
b0 '"
0+
b100000000000000001000 U
b10000000000000000100000 2
b10000000000000000100000 !
b11001000 {
b100000000000000001000 0"
b100000000000000001000 5
b100000000000000001000 Y
b101001010100000000100000 3"
b101001010100000000100000 A
b10000000000010000000000000000 9"
b10000000000010000000000000000 J
b10000000000010000000000000000 |
1;"
1-
0="
01
1?"
1/
1A"
19
b111 D"
b111 Q
b111 k
1"
1<
#43
b1100100 I
b1100100 q
b1100100 7"
b1100100 L"
b1100100 H
b1100100 w
b1100100 G"
b1100100 M"
b1100100 H"
b0 i
b1100100 E
b1100100 n
b1100100 J"
b1100100 D
b1100100 l
b1100100 E"
#44
b1000 P
b1000 +"
b1000 B"
b1100100 )
b1100100 s
b1100100 x
b100000000000000001001 C
b100000000000000001001 S
b100000000000000001001 ^
b0 ,"
b1000 -"
b1100100 t
b0 u
b100000000000000001001 _
17
0'
b100000000000000001001 4
b100000000000000001001 X
b100000000000000001001 \
b100000000000000001001 ."
0.
0,
b100000100000000101000 6
b100000100000000101000 [
b100000100000000101000 ]
0"
0<
#45
b11001000 O
b11001000 j
b11001000 &"
b11001000 ("
1R
b100000110100100000100010 @
b100000110100100000100010 b
b100000110100100000100010 1"
b11001000 B
b11001000 }
b11001000 %"
b10000000000010000000000000000 !"
#46
b1001 P
b1001 +"
b1001 B"
b11011110101011011011111011101111 {
b110010 ~
b1001 -"
b100100000100010 Z
b0 ("
b11001000 '"
0""
b100010 >
b100010 e
b1001 G
b1001 *"
b11 M
b11 o
b11 )"
b100 L
b100 m
b100100000100010 ?
b100100000100010 r
b100000000000000001001 V
b100000000000000001001 a
b1000 D"
b1000 Q
b1000 k
0?"
0/
0;"
0-
b1100100 9"
b1100100 J
b1100100 |
b11001000 6"
b11001000 ;
b11001000 z
b11001000 $"
b11001000 F"
b11001000 K"
b100000110100100000100010 3"
b100000110100100000100010 A
b100000000000000001001 0"
b100000000000000001001 5
b100000000000000001001 Y
b11001000 V"
b100000000000000001001 U
b10000000000000000100100 2
b10000000000000000100100 !
b11001000 i
b11001000 :
b11001000 y
b11001000 4"
1"
1<
#47
b11111111 )
b11111111 s
b11111111 x
b11111111 t
b11111111 I
b11111111 q
b11111111 7"
b11111111 L"
b10000000000 H
b10000000000 w
b10000000000 G"
b11111111 M"
b10000000000 H"
b11111111 E
b11111111 n
b11111111 J"
b10000000000 D
b10000000000 l
b10000000000 E"
#48
b100000000000000001010 C
b100000000000000001010 S
b100000000000000001010 ^
b100000000000000001010 _
0R
b1 &
b1 d
b1 v
b100000000000000001010 4
b100000000000000001010 X
b100000000000000001010 \
b100000000000000001010 ."
b100000100100000101011 6
b100000100100000101011 [
b100000100100000101011 ]
0"
0<
#49
b1000001010101000000100000 @
b1000001010101000000100000 b
b1000001010101000000100000 1"
b0 B
b0 }
b0 %"
b1100100 !"
