Lab9/cp0.vcd
$date
	Sun Oct 29 19:19:43 2017
$end
$version
	Icarus Verilog
$end
$timescale
	1s
$end
$scope module cp0_test $end
$var wire 30 ! EPC [29:0] $end
$var wire 1 " TakenInterrupt $end
$var wire 32 # rd_data [31:0] $end
$var reg 1 $ ERET $end
$var reg 1 % MTC0 $end
$var reg 1 & TimerInterrupt $end
$var reg 1 ' clock $end
$var reg 30 ( next_pc [29:0] $end
$var reg 5 ) regnum [4:0] $end
$var reg 1 * reset $end
$var reg 32 + wr_data [31:0] $end
$scope module c0 $end
$var wire 30 , EPC [29:0] $end
$var wire 1 - ERET $end
$var wire 1 . MTC0 $end
$var wire 1 " TakenInterrupt $end
$var wire 1 / TimerInterrupt $end
$var wire 1 0 a1 $end
$var wire 1 1 a2 $end
$var wire 1 2 a3 $end
$var wire 32 3 cause_register [31:0] $end
$var wire 1 4 clock $end
$var wire 32 5 decoderout [31:0] $end
$var wire 1 6 epcenable $end
$var wire 30 7 epcinput [29:0] $end
$var wire 30 8 epcout [29:0] $end
$var wire 1 9 exception_level $end
$var wire 1 : excreset $end
$var wire 30 ; next_pc [29:0] $end
$var wire 32 < rd_data [31:0] $end
$var wire 5 = regnum [4:0] $end
$var wire 1 > reset $end
$var wire 32 ? status_register [31:0] $end
$var wire 32 @ user_status [31:0] $end
$var wire 32 A wr_data [31:0] $end
$scope module mtc00 $end
$var wire 1 . enable $end
$var wire 5 B in [4:0] $end
$var wire 32 C out [31:0] $end
$upscope $end
$scope module epc44f3 $end
$var wire 30 D A [29:0] $end
$var wire 30 E B [29:0] $end
$var wire 30 F out [29:0] $end
$var wire 1 " sel $end
$var wire 30 G temp1 [29:0] $end
$var wire 30 H temp2 [29:0] $end
$upscope $end
$scope module epcregister $end
$var wire 1 4 clk $end
$var wire 30 I d [29:0] $end
$var wire 1 6 enable $end
$var wire 1 > reset $end
$var reg 30 J q [29:0] $end
$upscope $end
$scope module exception $end
$var wire 1 4 clk $end
$var wire 1 K d $end
$var wire 1 " enable $end
$var wire 1 : reset $end
$var reg 1 L q $end
$upscope $end
$scope module useus $end
$var wire 1 4 clk $end
$var wire 32 M d [31:0] $end
$var wire 1 N enable $end
$var wire 1 > reset $end
$var reg 32 O q [31:0] $end
$upscope $end
$scope module dataout $end
$var wire 32 P A [31:0] $end
$var wire 32 Q B [31:0] $end
$var wire 32 R C [31:0] $end
$var wire 32 S D [31:0] $end
$var wire 32 T E [31:0] $end
$var wire 32 U F [31:0] $end
$var wire 32 V G [31:0] $end
$var wire 32 W H [31:0] $end
$var wire 32 X I [31:0] $end
$var wire 32 Y J [31:0] $end
$var wire 32 Z K [31:0] $end
$var wire 32 [ L [31:0] $end
$var wire 32 \ M [31:0] $end
$var wire 32 ] N [31:0] $end
$var wire 32 ^ O [31:0] $end
$var wire 32 _ P [31:0] $end
$var wire 32 ` a [31:0] $end
$var wire 32 a b [31:0] $end
$var wire 32 b c [31:0] $end
$var wire 32 c d [31:0] $end
$var wire 32 d e [31:0] $end
$var wire 32 e f [31:0] $end
$var wire 32 f g [31:0] $end
$var wire 32 g h [31:0] $end
$var wire 32 h i [31:0] $end
$var wire 32 i j [31:0] $end
$var wire 32 j k [31:0] $end
$var wire 32 k l [31:0] $end
$var wire 32 l m [31:0] $end
$var wire 32 m n [31:0] $end
$var wire 32 n o [31:0] $end
$var wire 32 o out [31:0] $end
$var wire 32 p p [31:0] $end
$var wire 5 q sel [4:0] $end
$var wire 32 r wUPPER [31:0] $end
$var wire 32 s wlower [31:0] $end
$scope module m0 $end
$var wire 32 t A [31:0] $end
$var wire 32 u B [31:0] $end
$var wire 32 v C [31:0] $end
$var wire 32 w D [31:0] $end
$var wire 32 x E [31:0] $end
$var wire 32 y F [31:0] $end
$var wire 32 z G [31:0] $end
$var wire 32 { H [31:0] $end
$var wire 32 | I [31:0] $end
$var wire 32 } J [31:0] $end
$var wire 32 ~ K [31:0] $end
$var wire 32 !" L [31:0] $end
$var wire 32 "" M [31:0] $end
$var wire 32 #" N [31:0] $end
$var wire 32 $" O [31:0] $end
$var wire 32 %" P [31:0] $end
$var wire 32 &" out [31:0] $end
$var wire 4 '" sel [3:0] $end
$var wire 32 (" wAB [31:0] $end
$var wire 32 )" wABCD [31:0] $end
$var wire 32 *" wABCDEFGH [31:0] $end
$var wire 32 +" wCD [31:0] $end
$var wire 32 ," wEF [31:0] $end
$var wire 32 -" wEFGH [31:0] $end
$var wire 32 ." wGH [31:0] $end
$var wire 32 /" wIJ [31:0] $end
$var wire 32 0" wIJKL [31:0] $end
$var wire 32 1" wIJKLMNOP [31:0] $end
$var wire 32 2" wKL [31:0] $end
$var wire 32 3" wMN [31:0] $end
$var wire 32 4" wMNOP [31:0] $end
$var wire 32 5" wOP [31:0] $end
$scope module mAB $end
$var wire 32 6" A [31:0] $end
$var wire 32 7" B [31:0] $end
$var wire 32 8" out [31:0] $end
$var wire 1 9" sel $end
$var wire 32 :" temp1 [31:0] $end
$var wire 32 ;" temp2 [31:0] $end
$upscope $end
$scope module mCD $end
$var wire 32 <" A [31:0] $end
$var wire 32 =" B [31:0] $end
$var wire 32 >" out [31:0] $end
$var wire 1 ?" sel $end
$var wire 32 @" temp1 [31:0] $end
$var wire 32 A" temp2 [31:0] $end
$upscope $end
$scope module mEF $end
$var wire 32 B" A [31:0] $end
$var wire 32 C" B [31:0] $end
$var wire 32 D" out [31:0] $end
$var wire 1 E" sel $end
$var wire 32 F" temp1 [31:0] $end
$var wire 32 G" temp2 [31:0] $end
$upscope $end
$scope module mGH $end
$var wire 32 H" A [31:0] $end
$var wire 32 I" B [31:0] $end
$var wire 32 J" out [31:0] $end
$var wire 1 K" sel $end
$var wire 32 L" temp1 [31:0] $end
$var wire 32 M" temp2 [31:0] $end
$upscope $end
$scope module mIJ $end
$var wire 32 N" A [31:0] $end
$var wire 32 O" B [31:0] $end
$var wire 32 P" out [31:0] $end
$var wire 1 Q" sel $end
$var wire 32 R" temp1 [31:0] $end
$var wire 32 S" temp2 [31:0] $end
$upscope $end
$scope module mKL $end
$var wire 32 T" A [31:0] $end
$var wire 32 U" B [31:0] $end
$var wire 32 V" out [31:0] $end
$var wire 1 W" sel $end
$var wire 32 X" temp1 [31:0] $end
$var wire 32 Y" temp2 [31:0] $end
$upscope $end
$scope module mMN $end
$var wire 32 Z" A [31:0] $end
$var wire 32 [" B [31:0] $end
$var wire 32 \" out [31:0] $end
$var wire 1 ]" sel $end
$var wire 32 ^" temp1 [31:0] $end
$var wire 32 _" temp2 [31:0] $end
$upscope $end
$scope module mOP $end
$var wire 32 `" A [31:0] $end
$var wire 32 a" B [31:0] $end
$var wire 32 b" out [31:0] $end
$var wire 1 c" sel $end
$var wire 32 d" temp1 [31:0] $end
$var wire 32 e" temp2 [31:0] $end
$upscope $end
$scope module mABCD $end
$var wire 32 f" A [31:0] $end
$var wire 32 g" B [31:0] $end
$var wire 32 h" out [31:0] $end
$var wire 1 i" sel $end
$var wire 32 j" temp1 [31:0] $end
$var wire 32 k" temp2 [31:0] $end
$upscope $end
$scope module mEFGH $end
$var wire 32 l" A [31:0] $end
$var wire 32 m" B [31:0] $end
$var wire 32 n" out [31:0] $end
$var wire 1 o" sel $end
$var wire 32 p" temp1 [31:0] $end
$var wire 32 q" temp2 [31:0] $end
$upscope $end
$scope module mIJKL $end
$var wire 32 r" A [31:0] $end
$var wire 32 s" B [31:0] $end
$var wire 32 t" out [31:0] $end
$var wire 1 u" sel $end
$var wire 32 v" temp1 [31:0] $end
$var wire 32 w" temp2 [31:0] $end
$upscope $end
$scope module mMNOP $end
$var wire 32 x" A [31:0] $end
$var wire 32 y" B [31:0] $end
$var wire 32 z" out [31:0] $end
$var wire 1 {" sel $end
$var wire 32 |" temp1 [31:0] $end
$var wire 32 }" temp2 [31:0] $end
$upscope $end
$scope module mABCDEFGH $end
$var wire 32 ~" A [31:0] $end
$var wire 32 !# B [31:0] $end
$var wire 32 "# out [31:0] $end
$var wire 1 ## sel $end
$var wire 32 $# temp1 [31:0] $end
$var wire 32 %# temp2 [31:0] $end
$upscope $end
$scope module mIJKLMNOP $end
$var wire 32 &# A [31:0] $end
$var wire 32 '# B [31:0] $end
$var wire 32 (# out [31:0] $end
$var wire 1 )# sel $end
$var wire 32 *# temp1 [31:0] $end
$var wire 32 +# temp2 [31:0] $end
$upscope $end
$scope module mfinal $end
$var wire 32 ,# A [31:0] $end
$var wire 32 -# B [31:0] $end
$var wire 32 .# out [31:0] $end
$var wire 1 /# sel $end
$var wire 32 0# temp1 [31:0] $end
$var wire 32 1# temp2 [31:0] $end
$upscope $end
$upscope $end
$scope module m1 $end
$var wire 32 2# A [31:0] $end
$var wire 32 3# B [31:0] $end
$var wire 32 4# C [31:0] $end
$var wire 32 5# D [31:0] $end
$var wire 32 6# E [31:0] $end
$var wire 32 7# F [31:0] $end
$var wire 32 8# G [31:0] $end
$var wire 32 9# H [31:0] $end
$var wire 32 :# I [31:0] $end
$var wire 32 ;# J [31:0] $end
$var wire 32 <# K [31:0] $end
$var wire 32 =# L [31:0] $end
$var wire 32 ># M [31:0] $end
$var wire 32 ?# N [31:0] $end
$var wire 32 @# O [31:0] $end
$var wire 32 A# P [31:0] $end
$var wire 32 B# out [31:0] $end
$var wire 4 C# sel [3:0] $end
$var wire 32 D# wAB [31:0] $end
$var wire 32 E# wABCD [31:0] $end
$var wire 32 F# wABCDEFGH [31:0] $end
$var wire 32 G# wCD [31:0] $end
$var wire 32 H# wEF [31:0] $end
$var wire 32 I# wEFGH [31:0] $end
$var wire 32 J# wGH [31:0] $end
$var wire 32 K# wIJ [31:0] $end
$var wire 32 L# wIJKL [31:0] $end
$var wire 32 M# wIJKLMNOP [31:0] $end
$var wire 32 N# wKL [31:0] $end
$var wire 32 O# wMN [31:0] $end
$var wire 32 P# wMNOP [31:0] $end
$var wire 32 Q# wOP [31:0] $end
$scope module mAB $end
$var wire 32 R# A [31:0] $end
$var wire 32 S# B [31:0] $end
$var wire 32 T# out [31:0] $end
$var wire 1 U# sel $end
$var wire 32 V# temp1 [31:0] $end
$var wire 32 W# temp2 [31:0] $end
$upscope $end
$scope module mCD $end
$var wire 32 X# A [31:0] $end
$var wire 32 Y# B [31:0] $end
$var wire 32 Z# out [31:0] $end
$var wire 1 [# sel $end
$var wire 32 \# temp1 [31:0] $end
$var wire 32 ]# temp2 [31:0] $end
$upscope $end
$scope module mEF $end
$var wire 32 ^# A [31:0] $end
$var wire 32 _# B [31:0] $end
$var wire 32 `# out [31:0] $end
$var wire 1 a# sel $end
$var wire 32 b# temp1 [31:0] $end
$var wire 32 c# temp2 [31:0] $end
$upscope $end
$scope module mGH $end
$var wire 32 d# A [31:0] $end
$var wire 32 e# B [31:0] $end
$var wire 32 f# out [31:0] $end
$var wire 1 g# sel $end
$var wire 32 h# temp1 [31:0] $end
$var wire 32 i# temp2 [31:0] $end
$upscope $end
$scope module mIJ $end
$var wire 32 j# A [31:0] $end
$var wire 32 k# B [31:0] $end
$var wire 32 l# out [31:0] $end
$var wire 1 m# sel $end
$var wire 32 n# temp1 [31:0] $end
$var wire 32 o# temp2 [31:0] $end
$upscope $end
$scope module mKL $end
$var wire 32 p# A [31:0] $end
$var wire 32 q# B [31:0] $end
$var wire 32 r# out [31:0] $end
$var wire 1 s# sel $end
$var wire 32 t# temp1 [31:0] $end
$var wire 32 u# temp2 [31:0] $end
$upscope $end
$scope module mMN $end
$var wire 32 v# A [31:0] $end
$var wire 32 w# B [31:0] $end
$var wire 32 x# out [31:0] $end
$var wire 1 y# sel $end
$var wire 32 z# temp1 [31:0] $end
$var wire 32 {# temp2 [31:0] $end
$upscope $end
$scope module mOP $end
$var wire 32 |# A [31:0] $end
$var wire 32 }# B [31:0] $end
$var wire 32 ~# out [31:0] $end
$var wire 1 !$ sel $end
$var wire 32 "$ temp1 [31:0] $end
$var wire 32 #$ temp2 [31:0] $end
$upscope $end
$scope module mABCD $end
$var wire 32 $$ A [31:0] $end
$var wire 32 %$ B [31:0] $end
$var wire 32 &$ out [31:0] $end
$var wire 1 '$ sel $end
$var wire 32 ($ temp1 [31:0] $end
$var wire 32 )$ temp2 [31:0] $end
$upscope $end
$scope module mEFGH $end
$var wire 32 *$ A [31:0] $end
$var wire 32 +$ B [31:0] $end
$var wire 32 ,$ out [31:0] $end
$var wire 1 -$ sel $end
$var wire 32 .$ temp1 [31:0] $end
$var wire 32 /$ temp2 [31:0] $end
$upscope $end
$scope module mIJKL $end
$var wire 32 0$ A [31:0] $end
$var wire 32 1$ B [31:0] $end
$var wire 32 2$ out [31:0] $end
$var wire 1 3$ sel $end
$var wire 32 4$ temp1 [31:0] $end
$var wire 32 5$ temp2 [31:0] $end
$upscope $end
$scope module mMNOP $end
$var wire 32 6$ A [31:0] $end
$var wire 32 7$ B [31:0] $end
$var wire 32 8$ out [31:0] $end
$var wire 1 9$ sel $end
$var wire 32 :$ temp1 [31:0] $end
$var wire 32 ;$ temp2 [31:0] $end
$upscope $end
$scope module mABCDEFGH $end
$var wire 32 <$ A [31:0] $end
$var wire 32 =$ B [31:0] $end
$var wire 32 >$ out [31:0] $end
$var wire 1 ?$ sel $end
$var wire 32 @$ temp1 [31:0] $end
$var wire 32 A$ temp2 [31:0] $end
$upscope $end
$scope module mIJKLMNOP $end
$var wire 32 B$ A [31:0] $end
$var wire 32 C$ B [31:0] $end
$var wire 32 D$ out [31:0] $end
$var wire 1 E$ sel $end
$var wire 32 F$ temp1 [31:0] $end
$var wire 32 G$ temp2 [31:0] $end
$upscope $end
$scope module mfinal $end
$var wire 32 H$ A [31:0] $end
$var wire 32 I$ B [31:0] $end
$var wire 32 J$ out [31:0] $end
$var wire 1 K$ sel $end
$var wire 32 L$ temp1 [31:0] $end
$var wire 32 M$ temp2 [31:0] $end
$upscope $end
$upscope $end
$scope module mfinal $end
$var wire 32 N$ A [31:0] $end
$var wire 32 O$ B [31:0] $end
$var wire 32 P$ out [31:0] $end
$var wire 1 Q$ sel $end
$var wire 32 R$ temp1 [31:0] $end
$var wire 32 S$ temp2 [31:0] $end
$upscope $end
$upscope $end
$upscope $end
$upscope $end
$enddefinitions $end
#0
$dumpvars
b0 S$
b0 R$
0Q$
b0 P$
b0 O$
b0 N$
b0 M$
b0 L$
0K$
b0 J$
b0 I$
b0 H$
b0 G$
b0 F$
0E$
b0 D$
b0 C$
b0 B$
b0 A$
b0 @$
0?$
b0 >$
b0 =$
b0 <$
b0 ;$
b0 :$
09$
b0 8$
b0 7$
b0 6$
b0 5$
b0 4$
03$
b0 2$
b0 1$
b0 0$
b0 /$
b0 .$
0-$
b0 ,$
b0 +$
b0 *$
b0 )$
b0 ($
0'$
b0 &$
b0 %$
b0 $$
b0 #$
b0 "$
0!$
b0 ~#
b0 }#
b0 |#
b0 {#
b0 z#
0y#
b0 x#
b0 w#
b0 v#
b0 u#
b0 t#
0s#
b0 r#
b0 q#
b0 p#
b0 o#
b0 n#
0m#
b0 l#
b0 k#
b0 j#
b0 i#
b0 h#
0g#
b0 f#
b0 e#
b0 d#
b0 c#
b0 b#
0a#
b0 `#
b0 _#
b0 ^#
b0 ]#
b0 \#
0[#
b0 Z#
b0 Y#
b0 X#
b0 W#
b0 V#
0U#
b0 T#
b0 S#
b0 R#
b0 Q#
b0 P#
b0 O#
b0 N#
b0 M#
b0 L#
b0 K#
b0 J#
b0 I#
b0 H#
b0 G#
b0 F#
b0 E#
b0 D#
b0 C#
b0 B#
b0 A#
b0 @#
b0 ?#
b0 >#
b0 =#
b0 <#
b0 ;#
b0 :#
b0 9#
b0 8#
b0 7#
b0 6#
b0 5#
b0 4#
b0 3#
b0 2#
b0 1#
b0 0#
0/#
b0 .#
b0 -#
b0 ,#
b0 +#
b0 *#
0)#
b0 (#
b0xxxxxxxx000000xx '#
b0 &#
b0 %#
b0 $#
0##
b0 "#
b0 !#
b0 ~"
b0 }"
b0xxxxxxxx000000xx |"
0{"
b0xxxxxxxx000000xx z"
bx00 y"
b0xxxxxxxx000000xx x"
b0 w"
b0 v"
0u"
b0 t"
b0 s"
b0 r"
b0 q"
b0 p"
0o"
b0 n"
b0 m"
b0 l"
b0 k"
b0 j"
0i"
b0 h"
b0 g"
b0 f"
b0 e"
bx00 d"
0c"
bx00 b"
b0 a"
bx00 `"
b0 _"
b0xxxxxxxx000000xx ^"
0]"
b0xxxxxxxx000000xx \"
b0 ["
b0xxxxxxxx000000xx Z"
b0 Y"
b0 X"
0W"
b0 V"
b0 U"
b0 T"
b0 S"
b0 R"
0Q"
b0 P"
b0 O"
b0 N"
b0 M"
b0 L"
0K"
b0 J"
b0 I"
b0 H"
b0 G"
b0 F"
0E"
b0 D"
b0 C"
b0 B"
b0 A"
b0 @"
0?"
b0 >"
b0 ="
b0 <"
b0 ;"
b0 :"
09"
b0 8"
b0 7"
b0 6"
bx00 5"
b0xxxxxxxx000000xx 4"
b0xxxxxxxx000000xx 3"
b0 2"
b0 1"
b0 0"
b0 /"
b0 ."
b0 -"
b0 ,"
b0 +"
b0 *"
b0 )"
b0 ("
b0 '"
b0 &"
b0 %"
bx00 $"
b0 #"
b0xxxxxxxx000000xx ""
b0 !"
b0 ~
b0 }
b0 |
b0 {
b0 z
b0 y
b0 x
b0 w
b0 v
b0 u
b0 t
b0 s
b0 r
b0 q
b0 p
b0 o
bx00 n
b0 m
b0xxxxxxxx000000xx l
b0 k
b0 j
b0 i
b0 h
b0 g
b0 f
b0 e
b0 d
b0 c
b0 b
b0 a
b0 `
b0 _
b0 ^
b0 ]
b0 \
b0 [
b0 Z
b0 Y
b0 X
b0 W
b0 V
b0 U
b0 T
b0 S
b0 R
b0 Q
b0 P
bx O
0N
b0 M
xL
1K
bx J
b0 I
b0 H
b0 G
b0 F
b0 E
b0 D
b0 C
b0 B
b0 A
bx @
b0xxxxxxxx000000xx ?
1>
b0 =
b0 <
b0 ;
1:
x9
bx 8
b0 7
06
b0 5
04
b0 3
x2
x1
00
0/
0.
0-
bx ,
b0 +
1*
b0 )
b0 (
0'
0&
0%
0$
b0 #
0"
bx !
$end
#5
b0 4"
b0 z"
b0 '#
b0 |"
02
b0 5"
b0 b"
b0 y"
11
b0 3"
b0 \"
b0 x"
b0 d"
b0 ^"
b0 J
b0 n
b0 $"
b0 `"
b0 8
b0 !
b0 ,
0L
b0 ?
b0 l
b0 ""
b0 Z"
09
b0 O
b0 @
1'
14
#10
b111111111111111111111111111111 7
b111111111111111111111111111111 F
b111111111111111111111111111111 I
b111111111111111111111111111111 G
1##
1)#
1/#
1?$
1E$
1K$
1N
b111111111111111111111111111111 D
b1100 '"
b1100 C#
b1000000000000 5
b1000000000000 C
0:
0'
04
b11111111111111111111111111111111 +
b11111111111111111111111111111111 A
b11111111111111111111111111111111 M
b1100 )
b1100 =
b1100 B
b1100 q
1%
1.
0*
0>
#15
b1111111100000001 #
b1111111100000001 <
b1111111100000001 o
b1111111100000001 P$
b1111111100000001 R$
b1111111100000001 s
b1111111100000001 &"
b1111111100000001 .#
b1111111100000001 N$
b1111111100000001 1#
b1111111100000001 1"
b1111111100000001 (#
b1111111100000001 -#
b1111111100000001 +#
b1111111100000001 4"
b1111111100000001 z"
b1111111100000001 '#
b1111111100000001 |"
12
b1111111100000001 3"
b1111111100000001 \"
b1111111100000001 x"
b1111111100000001 ^"
b1111111100000001 ?
b1111111100000001 l
b1111111100000001 ""
b1111111100000001 Z"
b11111111111111111111111111111111 O
b11111111111111111111111111111111 @
1'
14
#20
0N
b0 5
b0 C
0'
04
0%
0.
#25
1'
14
#30
b100000000000000000100 7
b100000000000000000100 F
b100000000000000000100 I
16
b0 G
b100000000000000000100 H
1"
10
0'
04
b100000000000000000100 (
b100000000000000000100 ;
b100000000000000000100 E
1&
1/
b1000000000000000 3
b1000000000000000 m
b1000000000000000 #"
b1000000000000000 ["
#35
b1111111100000011 #
b1111111100000011 <
b1111111100000011 o
b1111111100000011 P$
b1111111100000011 R$
b1111111100000011 s
b1111111100000011 &"
b1111111100000011 .#
b1111111100000011 N$
b1111111100000011 1#
b111111111111111111111111111111 7
b111111111111111111111111111111 F
b111111111111111111111111111111 I
b1111111100000011 1"
b1111111100000011 (#
b1111111100000011 -#
06
b111111111111111111111111111111 G
b0 H
b1111111100000011 +#
0"
b1111111100000011 4"
b1111111100000011 z"
b1111111100000011 '#
02
b1111111100000011 |"
01
b1111111100000011 3"
b1111111100000011 \"
b1111111100000011 x"
b10000000000000000010000 5"
b10000000000000000010000 b"
b10000000000000000010000 y"
b1111111100000011 ^"
b10000000000000000010000 d"
1L
b1111111100000011 ?
b1111111100000011 l
b1111111100000011 ""
b1111111100000011 Z"
19
b100000000000000000100 J
b10000000000000000010000 n
b10000000000000000010000 $"
b10000000000000000010000 `"
b100000000000000000100 8
b100000000000000000100 !
b100000000000000000100 ,
1'
14
#40
0'
04
b100000000000000001000 (
b100000000000000001000 ;
b100000000000000001000 E
#45
1'
14
#50
b10000000000000000010000 #
b10000000000000000010000 <
b10000000000000000010000 o
b10000000000000000010000 P$
b10000000000000000010000 R$
b10000000000000000010000 s
b10000000000000000010000 &"
b10000000000000000010000 .#
b10000000000000000010000 N$
b10000000000000000010000 1#
b10000000000000000010000 1"
b10000000000000000010000 (#
b10000000000000000010000 -#
b10000000000000000010000 +#
b10000000000000000010000 4"
b10000000000000000010000 z"
b10000000000000000010000 '#
b0 |"
b10000000000000000010000 }"
1i"
1o"
1u"
1{"
1'$
1-$
13$
19$
b1110 '"
b1110 C#
0'
04
b1110 )
b1110 =
b1110 B
b1110 q
#55
1'
14
#60
b1000000000000000 #
b1000000000000000 <
b1000000000000000 o
b1000000000000000 P$
b1000000000000000 R$
b1000000000000000 s
b1000000000000000 &"
b1000000000000000 .#
b1000000000000000 N$
b1000000000000000 1#
b1000000000000000 1"
b1000000000000000 (#
b1000000000000000 -#
b1000000000000000 +#
b1000000000000000 3"
b1000000000000000 \"
b1000000000000000 x"
b0 5"
b0 b"
b0 y"
b1000000000000000 4"
b1000000000000000 z"
b1000000000000000 '#
b0 ^"
b1000000000000000 _"
b0 d"
b1000000000000000 |"
b0 }"
19"
1?"
1E"
1K"
1Q"
1W"
1]"
1c"
0i"
0o"
0u"
0{"
1U#
1[#
1a#
1g#
1m#
1s#
1y#
1!$
0'$
0-$
03$
09$
b1101 '"
b1101 C#
0'
04
b1101 )
b1101 =
b1101 B
b1101 q
#65
1'
14
#70
b0 #
b0 <
b0 o
b0 P$
b0 R$
b0 s
b0 &"
b0 .#
b0 N$
b0 1#
b0 1"
b0 (#
b0 -#
b0 +#
b0 4"
b0 z"
b0 '#
b0 |"
00
b0 3"
b0 \"
b0 x"
1:
b0 _"
0'
04
1$
1-
0&
0/
b0 3
b0 m
b0 #"
b0 ["
#75
12
11
0L
b1111111100000001 ?
b1111111100000001 l
b1111111100000001 ""
b1111111100000001 Z"
09
1'
14
#80
b1111111100000001 #
b1111111100000001 <
b1111111100000001 o
b1111111100000001 P$
b1111111100000001 R$
b1111111100000001 s
b1111111100000001 &"
b1111111100000001 .#
b1111111100000001 N$
b1111111100000001 1#
b1111111100000001 1"
b1111111100000001 (#
b1111111100000001 -#
b1111111100000001 +#
b1111111100000001 4"
b1111111100000001 z"
b1111111100000001 '#
b1111111100000001 |"
b1111111100000001 3"
b1111111100000001 \"
b1111111100000001 x"
b10000000000000000010000 5"
b10000000000000000010000 b"
b10000000000000000010000 y"
b1111111100000001 ^"
b10000000000000000010000 d"
09"
0?"
0E"
0K"
0Q"
0W"
0]"
0c"
0U#
0[#
0a#
0g#
0m#
0s#
0y#
0!$
b1100 '"
b1100 C#
0'
04
b1100 )
b1100 =
b1100 B
b1100 q
#85
1'
14
#90
b0 #
b0 <
b0 o
b0 P$
b0 R$
b0 s
b0 &"
b0 .#
b0 N$
b0 1#
b0 1"
b0 (#
b0 -#
b0 +#
b0 4"
b0 z"
b0 '#
b0 |"
b0 3"
b0 \"
b0 x"
b0 5"
b0 b"
b0 y"
b0 ^"
b0 d"
19"
1?"
1E"
1K"
1Q"
1W"
1]"
1c"
1U#
1[#
1a#
1g#
1m#
1s#
1y#
1!$
b1101 '"
b1101 C#
0'
04
b1101 )
b1101 =
b1101 B
b1101 q
